[
  {
    "id": "0.821147892737766",
    "title": "Frontend Developer",
    "location": "India",
    "remote": false,
    "flexible": true,
    "skill": "ReactJS",
    "partTime": true,
    "semiFullTime": false,
    "fullTime": true,
    "stipendRange": {
      "min": 51471,
      "max": 75882
    },
    "date": "2021-08-31",
    "duration": "5",
    "jobDesc": "Frontend Developer Interns needed",
    "jobDescPlaceHolder": "Enter the job description\nTry to be as precise as possible(250- 300 words)\n1.\n2.\n3.\n"
  },
  {
    "id": "0.8210567892737766",
    "title": "Frontend Developer",
    "location": "India",
    "remote": false,
    "flexible": true,
    "skill": "ReactJS",
    "partTime": true,
    "semiFullTime": false,
    "fullTime": true,
    "stipendRange": {
      "min": 51471,
      "max": 75882
    },
    "date": "2021-08-31",
    "duration": "5",
    "jobDesc": "Frontend Developer Interns needed",
    "jobDescPlaceHolder": "Enter the job description\nTry to be as precise as possible(250- 300 words)\n1.\n2.\n3.\n"
  },
  {
    "id": "0.825047892737766",
    "title": "Frontend Developer",
    "location": "India",
    "remote": false,
    "flexible": true,
    "skill": "ReactJS",
    "partTime": true,
    "semiFullTime": false,
    "fullTime": true,
    "stipendRange": {
      "min": 51471,
      "max": 75882
    },
    "date": "2021-08-31",
    "duration": "5",
    "jobDesc": "Frontend Developer Interns needed",
    "jobDescPlaceHolder": "Enter the job description\nTry to be as precise as possible(250- 300 words)\n1.\n2.\n3.\n"
  },
  {
    "id": "0.821047812737766",
    "title": "Frontend Developer",
    "location": "India",
    "remote": false,
    "flexible": true,
    "skill": "ReactJS",
    "partTime": true,
    "semiFullTime": false,
    "fullTime": true,
    "stipendRange": {
      "min": 51471,
      "max": 75882
    },
    "date": "2021-08-31",
    "duration": "5",
    "jobDesc": "Frontend Developer Interns needed",
    "jobDescPlaceHolder": "Enter the job description\nTry to be as precise as possible(250- 300 words)\n1.\n2.\n3.\n"
  },
  {
    "id": "0.821047892747766",
    "title": "Frontend Developer",
    "location": "India",
    "remote": false,
    "flexible": true,
    "skill": "ReactJS",
    "partTime": true,
    "semiFullTime": false,
    "fullTime": true,
    "stipendRange": {
      "min": 51471,
      "max": 75882
    },
    "date": "2021-08-31",
    "duration": "5",
    "jobDesc": "Frontend Developer Interns needed",
    "jobDescPlaceHolder": "Enter the job description\nTry to be as precise as possible(250- 300 words)\n1.\n2.\n3.\n"
  },
  {
    "id": "0.821047862737766",
    "title": "Frontend Developer",
    "location": "India",
    "remote": false,
    "flexible": true,
    "skill": "ReactJS",
    "partTime": true,
    "semiFullTime": false,
    "fullTime": true,
    "stipendRange": {
      "min": 51471,
      "max": 75882
    },
    "date": "2021-08-31",
    "duration": "5",
    "jobDesc": "Frontend Developer Interns needed",
    "jobDescPlaceHolder": "Enter the job description\nTry to be as precise as possible(250- 300 words)\n1.\n2.\n3.\n"
  },
  {
    "id": "0.821047192737766",
    "title": "Frontend Developer",
    "location": "India",
    "remote": false,
    "flexible": true,
    "skill": "ReactJS",
    "partTime": true,
    "semiFullTime": false,
    "fullTime": true,
    "stipendRange": {
      "min": 51471,
      "max": 75882
    },
    "date": "2021-08-31",
    "duration": "5",
    "jobDesc": "Frontend Developer Interns needed",
    "jobDescPlaceHolder": "Enter the job description\nTry to be as precise as possible(250- 300 words)\n1.\n2.\n3.\n"
  }
]
